{
  "$schema": "https://x.nest.land/eggs@0.3.8/src/schema.json",
  "name": "discordeno_yollectors_plugin",
  "entry": "./src/mod.ts",
  "description": "unofficial plugin with collectors for discordeno",
  "homepage": "",
  "unstable": true,
  "unlisted": false,
  "files": [
    "./src/**/*",
    "./*.md",
    "./examples/**/*"
  ],
  "checkFormat": false,
  "checkTests": false,
  "checkInstallation": true,
  "check": true,
  "ignore": [
    "*.env"
  ],
  "releaseType": "patch",
  "version": "1.2.9"
}
